{
  "totalItems": 6,
  "currentPage": 0,
  "totalPages": 2,
  "size": 5,
  "roles": [
    {
      "id": 1,
      "roleName": "FILTER RESULTSAnsatt - OKO System- og fellestjenester",
      "roleType": "ansatt",
      "aggregatedRole": false,
      "organisationUnitId": "35",
      "organisationUnitName": "OKO System- og fellestjenester"
    },
    {
      "id": 16,
      "roleName": "FILTER RESULTSAnsatt - OKO Regnskapsseksjon",
      "roleType": "ansatt",
      "aggregatedRole": false,
      "organisationUnitId": "30",
      "organisationUnitName": "OKO Regnskapsseksjon"
    },
    {
      "id": 25,
      "roleName": "FILTER RESULTSAnsatt - OKO Økonomiavdeling",
      "roleType": "ansatt",
      "aggregatedRole": false,
      "organisationUnitId": "26",
      "organisationUnitName": "OKO Økonomiavdeling"
    },
    {
      "id": 27,
      "roleName": "FILTER RESULTSAnsatt - OKO Budsjett- og finansseksjon",
      "roleType": "ansatt",
      "aggregatedRole": false,
      "organisationUnitId": "27",
      "organisationUnitName": "OKO Budsjett- og finansseksjon"
    },
    {
      "id": 45,
      "roleName": "FILTER RESULTSAnsatt - OKO Regnskapsseksjon - Aggregert",
      "roleType": "ansatt",
      "aggregatedRole": true,
      "organisationUnitId": "30",
      "organisationUnitName": "OKO Regnskapsseksjon"
    }
  ]
}