{
  "currentPage": 0,
  "totalPages": 4,
  "size": 5,
  "roles": [
    {
      "id": 39,
      "roleName": "AFTER SEVERAL ORGUNITS",
      "roleType": "ansatt",
      "aggregatedRole": true,
      "organisationUnitId": "153",
      "organisationUnitName": "KOMP Område sørvest"
    }
  ],
  "totalItems": 17
}